{
  "agsiModel": [
    {
      "modelID": "340f9d57-390f-4541-ac5a-0fdfd86866a3",
      "modelName": "Silvertown Tunnel - Ground Investigation Report",
      "modelType": "Geotechnical model",
      "category": "Observational",
      "agsiModelElement": [
        {
          "elementID": "Profile Surficial Alignment NB",
          "description": "Profile follows 'NB' alignment and 'Surficial' surface",
          "elementType": "Geological unit",
          "agsiGeometry": {
            "description": "Surficial",
            "agsiGeometryTop": {
              "description": "Top of Surficial",
              "geometryType": "Profile",
              "fileFormat": "WKT",
              "fileURI": "Profiles/NB_Alignment-01-Surficial-Top.txt",
              "revision": "Revision P2, issued 25/11/2022 10:23:07",
              "revisionInfo": "Need to add some details here",
              "remarks": "Surficial"
            },
            "agsiGeometryBottom": {
              "description": "Base of Surficial",
              "geometryType": "Profile",
              "fileFormat": "WKT",
              "fileURI": "Profiles/NB_Alignment-01-Surficial-Base.txt",
              "revision": "Revision P2, issued 25/11/2022 10:23:07",
              "revisionInfo": "Need to add some details here",
              "remarks": "Surficial"
            },
            "remarks": "Some remarks"
          },
          "geometryObject": "agsiGeometryAreaFromLines"
        },
        {
          "elementID": "Profile Alluvium Alignment NB",
          "description": "Profile follows 'NB' alignment and 'Alluvium' surface",
          "elementType": "Geological unit",
          "agsiGeometry": {
            "description": "Alluvium",
            "agsiGeometryTop": {
              "description": "Top of Alluvium",
              "geometryType": "Profile",
              "fileFormat": "WKT",
              "fileURI": "Profiles/NB_Alignment-02-Alluvium-Top.txt",
              "revision": "Revision P2, issued 25/11/2022 10:23:07",
              "revisionInfo": "Need to add some details here",
              "remarks": "Alluvium"
            },
            "agsiGeometryBottom": {
              "description": "Base of Alluvium",
              "geometryType": "Profile",
              "fileFormat": "WKT",
              "fileURI": "Profiles/NB_Alignment-02-Alluvium-Base.txt",
              "revision": "Revision P2, issued 25/11/2022 10:23:07",
              "revisionInfo": "Need to add some details here",
              "remarks": "Alluvium"
            },
            "remarks": "Some remarks"
          },
          "geometryObject": "agsiGeometryAreaFromLines"
        },
        {
          "elementID": "Profile River Terrace Deposits Alignment NB",
          "description": "Profile follows 'NB' alignment and 'River Terrace Deposits' surface",
          "elementType": "Geological unit",
          "agsiGeometry": {
            "description": "River Terrace Deposits",
            "agsiGeometryTop": {
              "description": "Top of River Terrace Deposits",
              "geometryType": "Profile",
              "fileFormat": "WKT",
              "fileURI": "Profiles/NB_Alignment-03-River_Terrace_Deposits-Top.txt",
              "revision": "Revision P2, issued 25/11/2022 10:23:07",
              "revisionInfo": "Need to add some details here",
              "remarks": "River Terrace Deposits"
            },
            "agsiGeometryBottom": {
              "description": "Base of River Terrace Deposits",
              "geometryType": "Profile",
              "fileFormat": "WKT",
              "fileURI": "Profiles/NB_Alignment-03-River_Terrace_Deposits-Base.txt",
              "revision": "Revision P2, issued 25/11/2022 10:23:07",
              "revisionInfo": "Need to add some details here",
              "remarks": "River Terrace Deposits"
            },
            "remarks": "Some remarks"
          },
          "geometryObject": "agsiGeometryAreaFromLines"
        },
        {
          "elementID": "Profile London Clay Alignment NB",
          "description": "Profile follows 'NB' alignment and 'London Clay' surface",
          "elementType": "Geological unit",
          "agsiGeometry": {
            "description": "London Clay",
            "agsiGeometryTop": {
              "description": "Top of London Clay",
              "geometryType": "Profile",
              "fileFormat": "WKT",
              "fileURI": "Profiles/NB_Alignment-04-London_Clay-Top.txt",
              "revision": "Revision P2, issued 25/11/2022 10:23:07",
              "revisionInfo": "Need to add some details here",
              "remarks": "London Clay"
            },
            "agsiGeometryBottom": {
              "description": "Base of London Clay",
              "geometryType": "Profile",
              "fileFormat": "WKT",
              "fileURI": "Profiles/NB_Alignment-04-London_Clay-Base.txt",
              "revision": "Revision P2, issued 25/11/2022 10:23:07",
              "revisionInfo": "Need to add some details here",
              "remarks": "London Clay"
            },
            "remarks": "Some remarks"
          },
          "geometryObject": "agsiGeometryAreaFromLines"
        },
        {
          "elementID": "Profile Harwich Formation Alignment NB",
          "description": "Profile follows 'NB' alignment and 'Harwich Formation' surface",
          "elementType": "Geological unit",
          "agsiGeometry": {
            "description": "Harwich Formation",
            "agsiGeometryTop": {
              "description": "Top of Harwich Formation",
              "geometryType": "Profile",
              "fileFormat": "WKT",
              "fileURI": "Profiles/NB_Alignment-05-Harwich_Formation-Top.txt",
              "revision": "Revision P2, issued 25/11/2022 10:23:07",
              "revisionInfo": "Need to add some details here",
              "remarks": "Harwich Formation"
            },
            "agsiGeometryBottom": {
              "description": "Base of Harwich Formation",
              "geometryType": "Profile",
              "fileFormat": "WKT",
              "fileURI": "Profiles/NB_Alignment-05-Harwich_Formation-Base.txt",
              "revision": "Revision P2, issued 25/11/2022 10:23:07",
              "revisionInfo": "Need to add some details here",
              "remarks": "Harwich Formation"
            },
            "remarks": "Some remarks"
          },
          "geometryObject": "agsiGeometryAreaFromLines"
        },
        {
          "elementID": "Profile Woolwich Formation Laminated Beds Alignment NB",
          "description": "Profile follows 'NB' alignment and 'Woolwich Formation Laminated Beds' surface",
          "elementType": "Geological unit",
          "agsiGeometry": {
            "description": "Woolwich Formation Laminated Beds",
            "agsiGeometryTop": {
              "description": "Top of Woolwich Formation Laminated Beds",
              "geometryType": "Profile",
              "fileFormat": "WKT",
              "fileURI": "Profiles/NB_Alignment-06-Woolwich_Formation_Laminated_Beds-Top.txt",
              "revision": "Revision P2, issued 25/11/2022 10:23:07",
              "revisionInfo": "Need to add some details here",
              "remarks": "Woolwich Formation Laminated Beds"
            },
            "agsiGeometryBottom": {
              "description": "Base of Woolwich Formation Laminated Beds",
              "geometryType": "Profile",
              "fileFormat": "WKT",
              "fileURI": "Profiles/NB_Alignment-06-Woolwich_Formation_Laminated_Beds-Base.txt",
              "revision": "Revision P2, issued 25/11/2022 10:23:07",
              "revisionInfo": "Need to add some details here",
              "remarks": "Woolwich Formation Laminated Beds"
            },
            "remarks": "Some remarks"
          },
          "geometryObject": "agsiGeometryAreaFromLines"
        },
        {
          "elementID": "Profile Woolwich Formation Lower Shelly Clay Alignment NB",
          "description": "Profile follows 'NB' alignment and 'Woolwich Formation Lower Shelly Clay' surface",
          "elementType": "Geological unit",
          "agsiGeometry": {
            "description": "Woolwich Formation Lower Shelly Clay",
            "agsiGeometryTop": {
              "description": "Top of Woolwich Formation Lower Shelly Clay",
              "geometryType": "Profile",
              "fileFormat": "WKT",
              "fileURI": "Profiles/NB_Alignment-07-Woolwich_Formation_Lower_Shelly_Clay-Top.txt",
              "revision": "Revision P2, issued 25/11/2022 10:23:07",
              "revisionInfo": "Need to add some details here",
              "remarks": "Woolwich Formation Lower Shelly Clay"
            },
            "agsiGeometryBottom": {
              "description": "Base of Woolwich Formation Lower Shelly Clay",
              "geometryType": "Profile",
              "fileFormat": "WKT",
              "fileURI": "Profiles/NB_Alignment-07-Woolwich_Formation_Lower_Shelly_Clay-Base.txt",
              "revision": "Revision P2, issued 25/11/2022 10:23:07",
              "revisionInfo": "Need to add some details here",
              "remarks": "Woolwich Formation Lower Shelly Clay"
            },
            "remarks": "Some remarks"
          },
          "geometryObject": "agsiGeometryAreaFromLines"
        },
        {
          "elementID": "Profile Reading Formation Lower Mottled Clay Alignment NB",
          "description": "Profile follows 'NB' alignment and 'Reading Formation Lower Mottled Clay' surface",
          "elementType": "Geological unit",
          "agsiGeometry": {
            "description": "Reading Formation Lower Mottled Clay",
            "agsiGeometryTop": {
              "description": "Top of Reading Formation Lower Mottled Clay",
              "geometryType": "Profile",
              "fileFormat": "WKT",
              "fileURI": "Profiles/NB_Alignment-08-Reading_Formation_Lower_Mottled_Clay-Top.txt",
              "revision": "Revision P2, issued 25/11/2022 10:23:07",
              "revisionInfo": "Need to add some details here",
              "remarks": "Reading Formation Lower Mottled Clay"
            },
            "agsiGeometryBottom": {
              "description": "Base of Reading Formation Lower Mottled Clay",
              "geometryType": "Profile",
              "fileFormat": "WKT",
              "fileURI": "Profiles/NB_Alignment-08-Reading_Formation_Lower_Mottled_Clay-Base.txt",
              "revision": "Revision P2, issued 25/11/2022 10:23:07",
              "revisionInfo": "Need to add some details here",
              "remarks": "Reading Formation Lower Mottled Clay"
            },
            "remarks": "Some remarks"
          },
          "geometryObject": "agsiGeometryAreaFromLines"
        },
        {
          "elementID": "Profile Upnor Formation Alignment NB",
          "description": "Profile follows 'NB' alignment and 'Upnor Formation' surface",
          "elementType": "Geological unit",
          "agsiGeometry": {
            "description": "Upnor Formation",
            "agsiGeometryTop": {
              "description": "Top of Upnor Formation",
              "geometryType": "Profile",
              "fileFormat": "WKT",
              "fileURI": "Profiles/NB_Alignment-09-Upnor_Formation-Top.txt",
              "revision": "Revision P2, issued 25/11/2022 10:23:07",
              "revisionInfo": "Need to add some details here",
              "remarks": "Upnor Formation"
            },
            "agsiGeometryBottom": {
              "description": "Base of Upnor Formation",
              "geometryType": "Profile",
              "fileFormat": "WKT",
              "fileURI": "Profiles/NB_Alignment-09-Upnor_Formation-Base.txt",
              "revision": "Revision P2, issued 25/11/2022 10:23:07",
              "revisionInfo": "Need to add some details here",
              "remarks": "Upnor Formation"
            },
            "remarks": "Some remarks"
          },
          "geometryObject": "agsiGeometryAreaFromLines"
        },
        {
          "elementID": "Profile Thanet Sand Alignment NB",
          "description": "Profile follows 'NB' alignment and 'Thanet Sand' surface",
          "elementType": "Geological unit",
          "agsiGeometry": {
            "description": "Thanet Sand",
            "agsiGeometryTop": {
              "description": "Top of Thanet Sand",
              "geometryType": "Profile",
              "fileFormat": "WKT",
              "fileURI": "Profiles/NB_Alignment-10-Thanet_Sand-Top.txt",
              "revision": "Revision P2, issued 25/11/2022 10:23:07",
              "revisionInfo": "Need to add some details here",
              "remarks": "Thanet Sand"
            },
            "agsiGeometryBottom": {
              "description": "Base of Thanet Sand",
              "geometryType": "Profile",
              "fileFormat": "WKT",
              "fileURI": "Profiles/NB_Alignment-10-Thanet_Sand-Base.txt",
              "revision": "Revision P2, issued 25/11/2022 10:23:07",
              "revisionInfo": "Need to add some details here",
              "remarks": "Thanet Sand"
            },
            "remarks": "Some remarks"
          },
          "geometryObject": "agsiGeometryAreaFromLines"
        },
        {
          "elementID": "Profile Chalk Alignment NB",
          "description": "Profile follows 'NB' alignment and 'Chalk' surface",
          "elementType": "Geological unit",
          "agsiGeometry": {
            "description": "Chalk",
            "agsiGeometryTop": {
              "description": "Top of Chalk",
              "geometryType": "Profile",
              "fileFormat": "WKT",
              "fileURI": "Profiles/NB_Alignment-11-Chalk-Top.txt",
              "revision": "Revision P2, issued 25/11/2022 10:23:07",
              "revisionInfo": "Need to add some details here",
              "remarks": "Chalk"
            },
            "remarks": "Some remarks"
          },
          "geometryObject": "agsiGeometryAreaFromLines"
        }
      ]
    }
  ]
}