999
Created with the Wolfram Language : www.wolfram.com
0
SECTION
2
HEADER
9
$ACADVER
1
AC1009
0
ENDSEC
0
SECTION
2
ENTITIES
0
LINE
8
0
10
0.
20
-18.260540623691046
30
0.
11
4.543003956140253
21
-18.455547215891237
31
0.
0
LINE
8
0
10
4.543003956140253
20
-18.455547215891237
30
0.
11
9.08600791230075
21
-18.65036024832592
31
0.
0
LINE
8
0
10
9.08600791230075
20
-18.65036024832592
30
0.
11
13.62901186842076
21
-18.845055413166204
31
0.
0
LINE
8
0
10
13.62901186842076
20
-18.845055413166204
30
0.
11
18.25302523641467
21
-19.04282486992027
31
0.
0
LINE
8
0
10
18.25302523641467
20
-19.04282486992027
30
0.
11
22.975514267068423
21
-19.244288726341903
31
0.
0
LINE
8
0
10
22.975514267068423
20
-19.244288726341903
30
0.
11
27.698003297702304
21
-19.44572416465199
31
0.
0
LINE
8
0
10
27.698003297702304
20
-19.44572416465199
30
0.
11
32.392830104455285
21
-19.64559838684725
31
0.
0
LINE
8
0
10
32.392830104455285
20
-19.64559838684725
30
0.
11
37.03621293645724
21
-19.842596548338875
31
0.
0
LINE
8
0
10
37.03621293645724
20
-19.842596548338875
30
0.
11
41.679595768545454
21
-20.039550547258372
31
0.
0
LINE
8
0
10
41.679595768545454
20
-20.039550547258372
30
0.
11
46.34610974509124
21
-20.236917804677233
31
0.
0
LINE
8
0
10
46.34610974509124
20
-20.236917804677233
30
0.
11
51.08486823237592
21
-20.43662505084819
31
0.
0
LINE
8
0
10
51.08486823237592
20
-20.43662505084819
30
0.
11
55.82362671978653
21
-20.63612253904242
31
0.
0
LINE
8
0
10
55.82362671978653
20
-20.63612253904242
30
0.
11
60.562385207197146
21
-20.835127837665684
31
0.
0
LINE
8
0
10
60.562385207197146
20
-20.835127837665684
30
0.
11
65.32030992689353
21
-21.033514520242978
31
0.
0
LINE
8
0
10
65.32030992689353
20
-21.033514520242978
30
0.
11
70.0800827616519
21
-21.231655503418338
31
0.
0
LINE
8
0
10
70.0800827616519
20
-21.231655503418338
30
0.
11
74.83985559648127
21
-21.42922544841153
31
0.
0
LINE
8
0
10
74.83985559648127
20
-21.42922544841153
30
0.
11
79.59962843123964
21
-21.626483642947797
31
0.
0
LINE
8
0
10
79.59962843123964
20
-21.626483642947797
30
0.
11
84.29686610551744
21
-21.819235914230664
31
0.
0
LINE
8
0
10
84.29686610551744
20
-21.819235914230664
30
0.
11
88.98934410438062
21
-22.011002590627704
31
0.
0
LINE
8
0
10
88.98934410438062
20
-22.011002590627704
30
0.
11
93.68284116342909
21
-22.202262997434048
31
0.
0
LINE
8
0
10
93.68284116342909
20
-22.202262997434048
30
0.
11
98.39958957836738
21
-22.392682048617147
31
0.
0
LINE
8
0
10
98.39958957836738
20
-22.392682048617147
30
0.
11
103.11633799332299
21
-22.53829046543582
31
0.
0
LINE
8
0
10
103.11633799332299
20
-22.53829046543582
30
0.
11
107.86199190064775
21
-22.576035665794222
31
0.
0
LINE
8
0
10
107.86199190064775
20
-22.576035665794222
30
0.
11
112.62654625875496
21
-22.58546976369803
31
0.
0
LINE
8
0
10
112.62654625875496
20
-22.58546976369803
30
0.
11
117.39110061701615
21
-22.592568481317922
31
0.
0
LINE
8
0
10
117.39110061701615
20
-22.592568481317922
30
0.
11
122.00359459888253
21
-22.596713951249594
31
0.
0
LINE
8
0
10
122.00359459888253
20
-22.596713951249594
30
0.
11
126.60832583984053
21
-22.599679352706055
31
0.
0
LINE
8
0
10
126.60832583984053
20
-22.599679352706055
30
0.
11
131.15095562602554
21
-22.599522426101583
31
0.
0
LINE
8
0
10
131.15095562602554
20
-22.599522426101583
30
0.
11
135.6918964565955
21
-22.598708182949018
31
0.
0
LINE
8
0
10
135.6918964565955
20
-22.598708182949018
30
0.
11
140.32391041886044
21
-22.59623583729509
31
0.
0
LINE
8
0
10
140.32391041886044
20
-22.59623583729509
30
0.
11
145.2037455285827
21
-22.591524156371616
31
0.
0
LINE
8
0
10
145.2037455285827
20
-22.591524156371616
30
0.
11
149.91821615876316
21
-22.585514781382315
31
0.
0
LINE
8
0
10
149.91821615876316
20
-22.585514781382315
30
0.
11
154.48639341112496
21
-22.57867946798942
31
0.
0
LINE
8
0
10
154.48639341112496
20
-22.57867946798942
30
0.
11
159.0738067928831
21
-22.569730870302994
31
0.
0
LINE
8
0
10
159.0738067928831
20
-22.569730870302994
30
0.
11
163.67797957631805
21
-22.559987949247468
31
0.
0
LINE
8
0
10
163.67797957631805
20
-22.559987949247468
30
0.
11
168.2821523597356
21
-22.550210479566935
31
0.
0
LINE
8
0
10
168.2821523597356
20
-22.550210479566935
30
0.
11
172.91104142108128
21
-22.53924333043188
31
0.
0
LINE
8
0
10
172.91104142108128
20
-22.53924333043188
30
0.
11
177.60743797179688
21
-22.52688940448084
31
0.
0
LINE
8
0
10
177.60743797179688
20
-22.52688940448084
30
0.
11
182.30383452256908
21
-22.514829328454656
31
0.
0
LINE
8
0
10
182.30383452256908
20
-22.514829328454656
30
0.
11
187.23156452868517
21
-22.501147210926817
31
0.
0
LINE
8
0
10
187.23156452868517
20
-22.501147210926817
30
0.
11
192.2432291021061
21
-22.487484217801782
31
0.
0
LINE
8
0
10
192.2432291021061
20
-22.487484217801782
30
0.
11
196.77511587434785
21
-22.4745380653385
31
0.
0
LINE
8
0
10
196.77511587434785
20
-22.4745380653385
30
0.
11
201.2941206503179
21
-22.46250130854761
31
0.
0
LINE
8
0
10
201.2941206503179
20
-22.46250130854761
30
0.
11
205.81438331751264
21
-22.450716614864163
31
0.
0
LINE
8
0
10
205.81438331751264
20
-22.450716614864163
30
0.
11
210.33083816093944
21
-22.4400292218401
31
0.
0
LINE
8
0
10
210.33083816093944
20
-22.4400292218401
30
0.
11
214.87098743056393
21
-22.430775642667317
31
0.
0
LINE
8
0
10
214.87098743056393
20
-22.430775642667317
30
0.
11
219.61042601626224
21
-22.422789900730937
31
0.
0
LINE
8
0
10
219.61042601626224
20
-22.422789900730937
30
0.
11
224.51436056820128
21
-22.41675883283706
31
0.
0
LINE
8
0
10
224.51436056820128
20
-22.41675883283706
30
0.
11
229.56171163388848
21
-22.413184949747247
31
0.
0
LINE
8
0
10
229.56171163388848
20
-22.413184949747247
30
0.
11
234.24071776021117
21
-22.410451785097134
31
0.
0
LINE
8
0
10
234.24071776021117
20
-22.410451785097134
30
0.
11
238.8190746644697
21
-22.40868048389701
31
0.
0
LINE
8
0
10
238.8190746644697
20
-22.40868048389701
30
0.
11
243.42491897487886
21
-22.40774066795796
31
0.
0
LINE
8
0
10
243.42491897487886
20
-22.40774066795796
30
0.
11
248.04017128552852
21
-22.407809519786937
31
0.
0
LINE
8
0
10
248.04017128552852
20
-22.407809519786937
30
0.
11
252.6554235961782
21
-22.40862958531357
31
0.
0
LINE
8
0
10
252.6554235961782
20
-22.40862958531357
30
0.
11
257.2698615462642
21
-22.410381249768548
31
0.
0
LINE
8
0
10
257.2698615462642
20
-22.410381249768548
30
0.
11
261.8116586377787
21
-22.412951781293913
31
0.
0
LINE
8
0
10
261.8116586377787
20
-22.412951781293913
30
0.
11
266.35345572924075
21
-22.4160333017747
31
0.
0
LINE
8
0
10
266.35345572924075
20
-22.4160333017747
30
0.
11
270.95597618729295
21
-22.420147330295485
31
0.
0
LINE
8
0
10
270.95597618729295
20
-22.420147330295485
30
0.
11
275.60392153861477
21
-22.424766311457052
31
0.
0
LINE
8
0
10
275.60392153861477
20
-22.424766311457052
30
0.
11
280.36297142625665
21
-22.430409426302276
31
0.
0
LINE
8
0
10
280.36297142625665
20
-22.430409426302276
30
0.
11
285.1869983219121
21
-22.436606514658326
31
0.
0
LINE
8
0
10
285.1869983219121
20
-22.436606514658326
30
0.
11
289.9600494405104
21
-22.44343997772912
31
0.
0
LINE
8
0
10
289.9600494405104
20
-22.44343997772912
30
0.
11
294.73310055913464
21
-22.45097827538749
31
0.
0
LINE
8
0
10
294.73310055913464
20
-22.45097827538749
30
0.
11
299.50615167783786
21
-22.45918133005751
31
0.
0
LINE
8
0
10
299.50615167783786
20
-22.45918133005751
30
0.
11
304.2825865710259
21
-22.46800258141303
31
0.
0
LINE
8
0
10
304.2825865710259
20
-22.46800258141303
30
0.
11
308.91932075087595
21
-22.47720501127127
31
0.
0
LINE
8
0
10
308.91932075087595
20
-22.47720501127127
30
0.
11
313.6972542431659
21
-22.487222908675218
31
0.
0
LINE
8
0
10
313.6972542431659
20
-22.487222908675218
30
0.
11
318.5439445939437
21
-22.498051356607515
31
0.
0
LINE
8
0
10
318.5439445939437
20
-22.498051356607515
30
0.
11
323.77790382019646
21
-22.510382633442752
31
0.
0
LINE
8
0
10
323.77790382019646
20
-22.510382633442752
30
0.
11
328.5899457017705
21
-22.5222763793895
31
0.
0
LINE
8
0
10
328.5899457017705
20
-22.5222763793895
30
0.
11
333.33930129507024
21
-22.5347009392579
31
0.
0
LINE
8
0
10
333.33930129507024
20
-22.5347009392579
30
0.
11
338.6963308571881
21
-22.54931514129031
31
0.
0
LINE
8
0
10
338.6963308571881
20
-22.54931514129031
30
0.
11
343.6762958973415
21
-22.563574190705356
31
0.
0
LINE
8
0
10
343.6762958973415
20
-22.563574190705356
30
0.
11
348.56612504067016
21
-22.578084350101836
31
0.
0
LINE
8
0
10
348.56612504067016
20
-22.578084350101836
30
0.
11
353.39534045086134
21
-22.593015506844218
31
0.
0
LINE
8
0
10
353.39534045086134
20
-22.593015506844218
30
0.
11
358.22484185373776
21
-22.608196362318342
31
0.
0
LINE
8
0
10
358.22484185373776
20
-22.608196362318342
30
0.
11
363.0853329048876
21
-22.623782360136115
31
0.
0
LINE
8
0
10
363.0853329048876
20
-22.623782360136115
30
0.
11
367.7896675287394
21
-22.639122241172704
31
0.
0
LINE
8
0
10
367.7896675287394
20
-22.639122241172704
30
0.
11
372.397453672983
21
-22.65437614430234
31
0.
0
LINE
8
0
10
372.397453672983
20
-22.65437614430234
30
0.
11
377.0052398173418
21
-22.6701340540691
31
0.
0
LINE
8
0
10
377.0052398173418
20
-22.6701340540691
30
0.
11
381.6130259616936
21
-22.686445117469553
31
0.
0
LINE
8
0
10
381.6130259616936
20
-22.686445117469553
30
0.
11
386.22455592699924
21
-22.702814699999262
31
0.
0
LINE
8
0
10
386.22455592699924
20
-22.702814699999262
30
0.
11
390.82854546542063
21
-22.719119149649345
31
0.
0
LINE
8
0
10
390.82854546542063
20
-22.719119149649345
30
0.
11
395.42509007791796
21
-22.73564299118014
31
0.
0
LINE
8
0
10
395.42509007791796
20
-22.73564299118014
30
0.
11
400.0216346904772
21
-22.752733410290393
31
0.
0
LINE
8
0
10
400.0216346904772
20
-22.752733410290393
30
0.
11
404.62028498851856
21
-22.769814124510063
31
0.
0
LINE
8
0
10
404.62028498851856
20
-22.769814124510063
30
0.
11
409.22720126586637
21
-22.787137674850392
31
0.
0
LINE
8
0
10
409.22720126586637
20
-22.787137674850392
30
0.
11
413.8416732290361
21
-22.80449664332196
31
0.
0
LINE
8
0
10
413.8416732290361
20
-22.80449664332196
30
0.
11
418.4561451922716
21
-22.822498145854343
31
0.
0
LINE
8
0
10
418.4561451922716
20
-22.822498145854343
30
0.
11
423.07061715548315
21
-22.84092943873937
31
0.
0
LINE
8
0
10
423.07061715548315
20
-22.84092943873937
30
0.
11
427.64971749185685
21
-22.85912569203333
31
0.
0
LINE
8
0
10
427.64971749185685
20
-22.85912569203333
30
0.
11
432.2905049921206
21
-22.877561410458796
31
0.
0
LINE
8
0
10
432.2905049921206
20
-22.877561410458796
30
0.
11
437.17575106501533
21
-22.897337486606084
31
0.
0
LINE
8
0
10
437.17575106501533
20
-22.897337486606084
30
0.
11
442.0609971379801
21
-22.917691429524535
31
0.
0
LINE
8
0
10
442.0609971379801
20
-22.917691429524535
30
0.
11
446.7574143405682
21
-22.936641440530828
31
0.
0
LINE
8
0
10
446.7574143405682
20
-22.936641440530828
30
0.
11
451.451315899449
21
-22.956265860082976
31
0.
0
LINE
8
0
10
451.451315899449
20
-22.956265860082976
30
0.
11
456.1452174584028
21
-22.976357336288565
31
0.
0
LINE
8
0
10
456.1452174584028
20
-22.976357336288565
30
0.
11
460.8391190174294
21
-22.997020221714052
31
0.
0
LINE
8
0
10
460.8391190174294
20
-22.997020221714052
30
0.
11
465.55725176767123
21
-23.01784637254605
31
0.
0
LINE
8
0
10
465.55725176767123
20
-23.01784637254605
30
0.
11
470.4308457095442
21
-23.039296786571434
31
0.
0
LINE
8
0
10
470.4308457095442
20
-23.039296786571434
30
0.
11
475.49051950557356
21
-23.062036013603667
31
0.
0
LINE
8
0
10
475.49051950557356
20
-23.062036013603667
30
0.
11
481.16672413279207
21
-23.087760232067918
31
0.
0
LINE
8
0
10
481.16672413279207
20
-23.087760232067918
30
0.
11
486.2052966800603
21
-23.11088057604147
31
0.
0
LINE
8
0
10
486.2052966800603
20
-23.11088057604147
30
0.
11
491.279668634479
21
-23.134510556808788
31
0.
0
LINE
8
0
10
491.279668634479
20
-23.134510556808788
30
0.
11
496.16736864115575
21
-23.15743071654986
31
0.
0
LINE
8
0
10
496.16736864115575
20
-23.15743071654986
30
0.
11
500.90878581070456
21
-23.180130942733214
31
0.
0
LINE
8
0
10
500.90878581070456
20
-23.180130942733214
30
0.
11
505.6502029802742
21
-23.203250395755685
31
0.
0
LINE
8
0
10
505.6502029802742
20
-23.203250395755685
30
0.
11
510.37220078249226
21
-23.226546712629524
31
0.
0
LINE
8
0
10
510.37220078249226
20
-23.226546712629524
30
0.
11
515.0922729273491
21
-23.250233755691436
31
0.
0
LINE
8
0
10
515.0922729273491
20
-23.250233755691436
30
0.
11
520.0894327595271
21
-23.27557249841039
31
0.
0
LINE
8
0
10
520.0894327595271
20
-23.27557249841039
30
0.
11
525.1783210846429
21
-23.301943135260714
31
0.
0
LINE
8
0
10
525.1783210846429
20
-23.301943135260714
30
0.
11
530.3011511533878
21
-23.328639398357023
31
0.
0
LINE
8
0
10
530.3011511533878
20
-23.328639398357023
30
0.
11
535.5583758780241
21
-23.356581445124878
31
0.
0
LINE
8
0
10
535.5583758780241
20
-23.356581445124878
30
0.
11
540.544912376305
21
-23.38364182091927
31
0.
0
LINE
8
0
10
540.544912376305
20
-23.38364182091927
30
0.
11
545.5060433931137
21
-23.411284109238238
31
0.
0
LINE
8
0
10
545.5060433931137
20
-23.411284109238238
30
0.
11
550.3175112796646
21
-23.437872555790616
31
0.
0
LINE
8
0
10
550.3175112796646
20
-23.437872555790616
30
0.
11
555.1289791663236
21
-23.465429912465115
31
0.
0
LINE
8
0
10
555.1289791663236
20
-23.465429912465115
30
0.
11
559.9216749779999
21
-23.493705827606448
31
0.
0
LINE
8
0
10
559.9216749779999
20
-23.493705827606448
30
0.
11
564.8993310432993
21
-23.523681999735974
31
0.
0
LINE
8
0
10
564.8993310432993
20
-23.523681999735974
30
0.
11
570.7913344938872
21
-23.560207113858432
31
0.
0
LINE
8
0
10
570.7913344938872
20
-23.560207113858432
30
0.
11
577.3196693105488
21
-23.602105374888293
31
0.
0
LINE
8
0
10
577.3196693105488
20
-23.602105374888293
30
0.
11
582.9846339330747
21
-23.640078224217373
31
0.
0
LINE
8
0
10
582.9846339330747
20
-23.640078224217373
30
0.
11
587.9169618474189
21
-23.67437071190564
31
0.
0
LINE
8
0
10
587.9169618474189
20
-23.67437071190564
30
0.
11
592.8068362212873
21
-23.70972544855741
31
0.
0
LINE
8
0
10
592.8068362212873
20
-23.70972544855741
30
0.
11
597.7128099474833
21
-23.74683582719284
31
0.
0
LINE
8
0
10
597.7128099474833
20
-23.74683582719284
30
0.
11
602.4388983187267
21
-23.78368348805894
31
0.
0
LINE
8
0
10
602.4388983187267
20
-23.78368348805894
30
0.
11
607.3565044232218
21
-23.82370181592508
31
0.
0
LINE
8
0
10
607.3565044232218
20
-23.82370181592508
30
0.
11
612.5453470852478
21
-23.8678492819313
31
0.
0
LINE
8
0
10
612.5453470852478
20
-23.8678492819313
30
0.
11
617.3529205887119
21
-23.910631098239126
31
0.
0
LINE
8
0
10
617.3529205887119
20
-23.910631098239126
30
0.
11
622.160494092268
21
-23.95479023415772
31
0.
0
LINE
8
0
10
622.160494092268
20
-23.95479023415772
30
0.
11
626.9680675956399
21
-24.000622279543535
31
0.
0
LINE
8
0
10
626.9680675956399
20
-24.000622279543535
30
0.
11
632.1000474905902
21
-24.052458135379247
31
0.
0
LINE
8
0
10
632.1000474905902
20
-24.052458135379247
30
0.
11
637.0354042939681
21
-24.10532758137408
31
0.
0
LINE
8
0
10
637.0354042939681
20
-24.10532758137408
30
0.
11
639.8385906690008
21
-24.13561224326691
31
0.
0
LINE
8
0
10
639.8385906690008
20
-24.13561224326691
30
0.
11
641.7997198425259
21
-24.15795993690024
31
0.
0
LINE
8
0
10
641.7997198425259
20
-24.15795993690024
30
0.
11
646.0636679202261
21
-24.208219072965782
31
0.
0
LINE
8
0
10
646.0636679202261
20
-24.208219072965782
30
0.
11
651.0552306920814
21
-24.27002064929178
31
0.
0
LINE
8
0
10
651.0552306920814
20
-24.27002064929178
30
0.
11
656.637861294708
21
-24.34162204509636
31
0.
0
LINE
8
0
10
656.637861294708
20
-24.34162204509636
30
0.
11
661.6800626095948
21
-24.410006058092105
31
0.
0
LINE
8
0
10
661.6800626095948
20
-24.410006058092105
30
0.
11
666.3055815204526
21
-24.47299073689246
31
0.
0
LINE
8
0
10
666.3055815204526
20
-24.47299073689246
30
0.
11
670.8626982322811
21
-24.536098336105578
31
0.
0
LINE
8
0
10
670.8626982322811
20
-24.536098336105578
30
0.
11
675.4167861633647
21
-24.601547069660825
31
0.
0
LINE
8
0
10
675.4167861633647
20
-24.601547069660825
30
0.
11
679.941383224703
21
-24.66543253202817
31
0.
0
LINE
8
0
10
679.941383224703
20
-24.66543253202817
30
0.
11
684.6062332620314
21
-24.73309223255497
31
0.
0
LINE
8
0
10
684.6062332620314
20
-24.73309223255497
30
0.
11
689.3900700059891
21
-24.800065812407453
31
0.
0
LINE
8
0
10
689.3900700059891
20
-24.800065812407453
30
0.
11
694.1956465073436
21
-24.86909255314892
31
0.
0
LINE
8
0
10
694.1956465073436
20
-24.86909255314892
30
0.
11
699.046639096473
21
-24.93593014890949
31
0.
0
LINE
8
0
10
699.046639096473
20
-24.93593014890949
30
0.
11
703.9120540686146
21
-25.000944676798003
31
0.
0
LINE
8
0
10
703.9120540686146
20
-25.000944676798003
30
0.
11
708.6548536121255
21
-25.063240579659002
31
0.
0
LINE
8
0
10
708.6548536121255
20
-25.063240579659002
30
0.
11
713.3036199151766
21
-25.121216596596497
31
0.
0
LINE
8
0
10
713.3036199151766
20
-25.121216596596497
30
0.
11
717.9303085458901
21
-25.17245283395653
31
0.
0
LINE
8
0
10
717.9303085458901
20
-25.17245283395653
30
0.
11
722.7936781405756
21
-25.220572099191056
31
0.
0
LINE
8
0
10
722.7936781405756
20
-25.220572099191056
30
0.
11
727.5378546419032
21
-25.257312534253774
31
0.
0
LINE
8
0
10
727.5378546419032
20
-25.257312534253774
30
0.
11
732.064763795369
21
-25.286297737180014
31
0.
0
LINE
8
0
10
732.064763795369
20
-25.286297737180014
30
0.
11
736.5977364247751
21
-25.300404749011996
31
0.
0
LINE
8
0
10
736.5977364247751
20
-25.300404749011996
30
0.
11
741.3833047447665
21
-25.306019926849054
31
0.
0
LINE
8
0
10
741.3833047447665
20
-25.306019926849054
30
0.
11
746.9418508228151
21
-25.28993933862554
31
0.
0
LINE
8
0
10
746.9418508228151
20
-25.28993933862554
30
0.
11
751.7686064930338
21
-25.251440259484003
31
0.
0
LINE
8
0
10
751.7686064930338
20
-25.251440259484003
30
0.
11
756.317625096842
21
-25.202714732880345
31
0.
0
LINE
8
0
10
756.317625096842
20
-25.202714732880345
30
0.
11
760.887845820015
21
-25.13141744540926
31
0.
0
LINE
8
0
10
760.887845820015
20
-25.13141744540926
30
0.
11
765.4738419843649
21
-25.04313949303345
31
0.
0
LINE
8
0
10
765.4738419843649
20
-25.04313949303345
30
0.
11
770.0681222005496
21
-24.93322419210853
31
0.
0
LINE
8
0
10
770.0681222005496
20
-24.93322419210853
30
0.
11
774.7169484365165
21
-24.80749185274202
31
0.
0
LINE
8
0
10
774.7169484365165
20
-24.80749185274202
30
0.
11
779.4434078755679
21
-24.66701068427911
31
0.
0
LINE
8
0
10
779.4434078755679
20
-24.66701068427911
30
0.
11
784.0836614898182
21
-24.522177596036506
31
0.
0
LINE
8
0
10
784.0836614898182
20
-24.522177596036506
30
0.
11
788.686786437444
21
-24.3867711153036
31
0.
0
LINE
8
0
10
788.686786437444
20
-24.3867711153036
30
0.
11
793.2621503591715
21
-24.253906367690746
31
0.
0
LINE
8
0
10
793.2621503591715
20
-24.253906367690746
30
0.
11
797.8259581830152
21
-24.14937459564022
31
0.
0
LINE
8
0
10
797.8259581830152
20
-24.14937459564022
30
0.
11
802.3897660069567
21
-24.079806881036916
31
0.
0
LINE
8
0
10
802.3897660069567
20
-24.079806881036916
30
0.
11
806.9879602958101
21
-24.030286035591175
31
0.
0
LINE
8
0
10
806.9879602958101
20
-24.030286035591175
30
0.
11
811.7741837884839
21
-24.01050208470385
31
0.
0
LINE
8
0
10
811.7741837884839
20
-24.01050208470385
30
0.
11
816.5604072812722
21
-24.01174921513478
31
0.
0
LINE
8
0
10
816.5604072812722
20
-24.01174921513478
30
0.
11
821.3632015296747
21
-24.028323136294006
31
0.
0
LINE
8
0
10
821.3632015296747
20
-24.028323136294006
30
0.
11
826.2106327254176
21
-24.054874670893504
31
0.
0
LINE
8
0
10
826.2106327254176
20
-24.054874670893504
30
0.
11
831.1849246316092
21
-24.09581178715687
31
0.
0
LINE
8
0
10
831.1849246316092
20
-24.09581178715687
30
0.
11
836.2106033837202
21
-24.145249398504042
31
0.
0
LINE
8
0
10
836.2106033837202
20
-24.145249398504042
30
0.
11
840.9908294716348
21
-24.199412676696305
31
0.
0
LINE
8
0
10
840.9908294716348
20
-24.199412676696305
30
0.
11
845.6298366089264
21
-24.258240927232027
31
0.
0
LINE
8
0
10
845.6298366089264
20
-24.258240927232027
30
0.
11
850.802532235661
21
-24.32898152659982
31
0.
0
LINE
8
0
10
850.802532235661
20
-24.32898152659982
30
0.
11
855.0590741200241
21
-24.3914312525998
31
0.
0
LINE
8
0
10
855.0590741200241
20
-24.3914312525998
30
0.
11
860.6988399654718
21
-24.47933897364111
31
0.
0
LINE
8
0
10
860.6988399654718
20
-24.47933897364111
30
0.
11
865.500341720804
21
-24.557482326783862
31
0.
0
LINE
8
0
10
865.500341720804
20
-24.557482326783862
30
0.
11
870.8860273397147
21
-24.64923271305729
31
0.
0
LINE
8
0
10
870.8860273397147
20
-24.64923271305729
30
0.
11
875.8875167663111
21
-24.73520005748862
31
0.
0
LINE
8
0
10
875.8875167663111
20
-24.73520005748862
30
0.
11
881.8143036975907
21
-24.84406699906975
31
0.
0
LINE
8
0
10
881.8143036975907
20
-24.84406699906975
30
0.
11
886.7302417885658
21
-24.9333816004079
31
0.
0
LINE
8
0
10
886.7302417885658
20
-24.9333816004079
30
0.
11
891.6761864336365
21
-25.026780222803783
31
0.
0
LINE
8
0
10
891.6761864336365
20
-25.026780222803783
30
0.
11
896.7979136742364
21
-25.123256182093893
31
0.
0
LINE
8
0
10
896.7979136742364
20
-25.123256182093893
30
0.
11
901.6585526118959
21
-25.212424056068564
31
0.
0
LINE
8
0
10
901.6585526118959
20
-25.212424056068564
30
0.
11
906.8146133595121
21
-25.30416964209916
31
0.
0
LINE
8
0
10
906.8146133595121
20
-25.30416964209916
30
0.
11
912.3203477715498
21
-25.403604685905027
31
0.
0
LINE
8
0
10
912.3203477715498
20
-25.403604685905027
30
0.
11
917.6298626295286
21
-25.4941433352819
31
0.
0
LINE
8
0
10
917.6298626295286
20
-25.4941433352819
30
0.
11
923.1299748430887
21
-25.569985536865538
31
0.
0
LINE
8
0
10
923.1299748430887
20
-25.569985536865538
30
0.
11
928.3665503494998
21
-25.62124065978135
31
0.
0
LINE
8
0
10
928.3665503494998
20
-25.62124065978135
30
0.
11
933.5641762039006
21
-25.674329832773175
31
0.
0
LINE
8
0
10
933.5641762039006
20
-25.674329832773175
30
0.
11
936.9989880430742
21
-25.71449303664509
31
0.
0
LINE
8
0
10
936.9989880430742
20
-25.71449303664509
30
0.
11
943.1958402215089
21
-25.793338258571254
31
0.
0
LINE
8
0
10
943.1958402215089
20
-25.793338258571254
30
0.
11
945.0383793206781
21
-25.818376176457328
31
0.
0
LINE
8
0
10
945.0383793206781
20
-25.818376176457328
30
0.
11
945.7532213627914
21
-25.828173418443924
31
0.
0
LINE
8
0
10
945.7532213627914
20
-25.828173418443924
30
0.
11
950.4981614773315
21
-25.89537863943579
31
0.
0
LINE
8
0
10
950.4981614773315
20
-25.89537863943579
30
0.
11
955.7699822779721
21
-25.96953542217675
31
0.
0
LINE
8
0
10
955.7699822779721
20
-25.96953542217675
30
0.
11
961.0777302956869
21
-26.03789353174856
31
0.
0
LINE
8
0
10
961.0777302956869
20
-26.03789353174856
30
0.
11
966.2736749451858
21
-26.074995826918897
31
0.
0
LINE
8
0
10
966.2736749451858
20
-26.074995826918897
30
0.
11
971.0165589716254
21
-26.09787284918664
31
0.
0
LINE
8
0
10
971.0165589716254
20
-26.09787284918664
30
0.
11
976.2539096023689
21
-26.098945446146832
31
0.
0
LINE
8
0
10
976.2539096023689
20
-26.098945446146832
30
0.
11
981.6347883589923
21
-26.078298910614073
31
0.
0
LINE
8
0
10
981.6347883589923
20
-26.078298910614073
30
0.
11
987.0574872487882
21
-26.022414545354973
31
0.
0
LINE
8
0
10
987.0574872487882
20
-26.022414545354973
30
0.
11
992.8326665331023
21
-25.923503586643864
31
0.
0
LINE
8
0
10
992.8326665331023
20
-25.923503586643864
30
0.
11
997.2404709176135
21
-25.82758237033652
31
0.
0
LINE
8
0
10
997.2404709176135
20
-25.82758237033652
30
0.
11
1002.2873617438771
21
-25.68248538965383
31
0.
0
LINE
8
0
10
1002.2873617438771
20
-25.68248538965383
30
0.
11
1002.4633502390137
21
-25.677478335828063
31
0.
0
LINE
8
0
10
1002.4633502390137
20
-25.677478335828063
30
0.
11
1007.9148469846261
21
-25.4912702008487
31
0.
0
LINE
8
0
10
1007.9148469846261
20
-25.4912702008487
30
0.
11
1011.662327211693
21
-25.353324149894064
31
0.
0
LINE
8
0
10
1011.662327211693
20
-25.353324149894064
30
0.
11
1017.8813748053966
21
-25.111795882783024
31
0.
0
LINE
8
0
10
1017.8813748053966
20
-25.111795882783024
30
0.
11
1023.4887057169748
21
-24.882193163076654
31
0.
0
LINE
8
0
10
1023.4887057169748
20
-24.882193163076654
30
0.
11
1029.7104187728878
21
-24.63803241826012
31
0.
0
LINE
8
0
10
1029.7104187728878
20
-24.63803241826012
30
0.
11
1035.3546300918508
21
-24.422724605130178
31
0.
0
LINE
8
0
10
1035.3546300918508
20
-24.422724605130178
30
0.
11
1040.5651637885803
21
-24.25824963574105
31
0.
0
LINE
8
0
10
1040.5651637885803
20
-24.25824963574105
30
0.
11
1045.9748846097355
21
-24.12599573253378
31
0.
0
LINE
8
0
10
1045.9748846097355
20
-24.12599573253378
30
0.
11
1051.5668983923608
21
-24.06191393870207
31
0.
0
LINE
8
0
10
1051.5668983923608
20
-24.06191393870207
30
0.
11
1056.4818256343344
21
-24.03540585779274
31
0.
0
LINE
8
0
10
1056.4818256343344
20
-24.03540585779274
30
0.
11
1061.4449471774399
21
-24.034219186173846
31
0.
0
LINE
8
0
10
1061.4449471774399
20
-24.034219186173846
30
0.
11
1066.6090877287422
21
-24.04480827751739
31
0.
0
LINE
8
0
10
1066.6090877287422
20
-24.04480827751739
30
0.
11
1072.1529461164678
21
-24.07853796047558
31
0.
0
LINE
8
0
10
1072.1529461164678
20
-24.07853796047558
30
0.
11
1077.7195273912753
21
-24.120991319492475
31
0.
0
LINE
8
0
10
1077.7195273912753
20
-24.120991319492475
30
0.
11
1082.6328794915169
21
-24.169400892413282
31
0.
0
LINE
8
0
10
1082.6328794915169
20
-24.169400892413282
30
0.
11
1087.7408002053373
21
-24.223405924783776
31
0.
0
LINE
8
0
10
1087.7408002053373
20
-24.223405924783776
30
0.
11
1092.8612506891711
21
-24.2801319854339
31
0.
0
LINE
8
0
10
1092.8612506891711
20
-24.2801319854339
30
0.
11
1098.2016564003093
21
-24.343123784233367
31
0.
0
LINE
8
0
10
1098.2016564003093
20
-24.343123784233367
30
0.
11
1103.2463643210117
21
-24.401898862515125
31
0.
0
LINE
8
0
10
1103.2463643210117
20
-24.401898862515125
30
0.
11
1108.260240182355
21
-24.46079844476958
31
0.
0
LINE
8
0
10
1108.260240182355
20
-24.46079844476958
30
0.
11
1113.099181847885
21
-24.51600036827851
31
0.
0
LINE
8
0
10
1113.099181847885
20
-24.51600036827851
30
0.
11
1118.3867163290677
21
-24.57292762254224
31
0.
0
LINE
8
0
10
1118.3867163290677
20
-24.57292762254224
30
0.
11
1123.286372189239
21
-24.62470030232758
31
0.
0
LINE
8
0
10
1123.286372189239
20
-24.62470030232758
30
0.
11
1124.9070973151574
21
-24.608210672379595
31
0.
0
LINE
8
0
10
1124.9070973151574
20
-24.608210672379595
30
0.
11
1127.5490930901603
21
-24.634971476372147
31
0.
0
LINE
8
0
10
1127.5490930901603
20
-24.634971476372147
30
0.
11
1132.1415468173566
21
-24.679334798108794
31
0.
0
LINE
8
0
10
1132.1415468173566
20
-24.679334798108794
30
0.
11
1134.7537791471646
21
-24.70375903905891
31
0.
0
LINE
8
0
10
1134.7537791471646
20
-24.70375903905891
30
0.
11
1140.4136354793495
21
-24.75376161181169
31
0.
0
LINE
8
0
10
1140.4136354793495
20
-24.75376161181169
30
0.
11
1146.2394889086825
21
-24.80102221440476
31
0.
0
LINE
8
0
10
1146.2394889086825
20
-24.80102221440476
30
0.
11
1148.9910206275665
21
-24.82216652865791
31
0.
0
LINE
8
0
10
1148.9910206275665
20
-24.82216652865791
30
0.
11
1153.9387332757963
21
-24.857218699811924
31
0.
0
LINE
8
0
10
1153.9387332757963
20
-24.857218699811924
30
0.
11
1159.0561282782935
21
-24.890419183022473
31
0.
0
LINE
8
0
10
1159.0561282782935
20
-24.890419183022473
30
0.
11
1165.2643763672204
21
-24.926269311574508
31
0.
0
LINE
8
0
10
1165.2643763672204
20
-24.926269311574508
30
0.
11
1170.7713975121208
21
-24.954651991531144
31
0.
0
LINE
8
0
10
1170.7713975121208
20
-24.954651991531144
30
0.
11
1175.3413883741525
21
-24.975763406588495
31
0.
0
LINE
8
0
10
1175.3413883741525
20
-24.975763406588495
30
0.
11
1180.90055922597
21
-24.998294058736068
31
0.
0
LINE
8
0
10
1180.90055922597
20
-24.998294058736068
30
0.
11
1186.8409796161131
21
-25.018752883069492
31
0.
0
LINE
8
0
10
1186.8409796161131
20
-25.018752883069492
30
0.
11
1191.1012375331468
21
-25.03115599100013
31
0.
0
LINE
8
0
10
1191.1012375331468
20
-25.03115599100013
30
0.
11
1196.2625709576823
21
-25.043782432407767
31
0.
0
LINE
8
0
10
1196.2625709576823
20
-25.043782432407767
30
0.
11
1201.7726053360398
21
-25.05498380670367
31
0.
0
LINE
8
0
10
1201.7726053360398
20
-25.05498380670367
30
0.
11
1207.319042088536
21
-25.06264372630716
31
0.
0
LINE
8
0
10
1207.319042088536
20
-25.06264372630716
30
0.
11
1212.8093696055005
21
-25.067333504922527
31
0.
0
LINE
8
0
10
1212.8093696055005
20
-25.067333504922527
30
0.
11
1218.269854388733
21
-25.068880361877437
31
0.
0
LINE
8
0
10
1218.269854388733
20
-25.068880361877437
30
0.
11
1223.729053767676
21
-25.067935556055946
31
0.
0
LINE
8
0
10
1223.729053767676
20
-25.067935556055946
30
0.
11
1228.4650460971764
21
-25.064351097822296
31
0.
0
LINE
8
0
10
1228.4650460971764
20
-25.064351097822296
30
0.
11
1231.8440663854476
21
-25.06041555429951
31
0.
0
LINE
8
0
10
1231.8440663854476
20
-25.06041555429951
30
0.
11
1238.189247700324
21
-25.050470547504673
31
0.
0
LINE
8
0
10
1238.189247700324
20
-25.050470547504673
30
0.
11
1242.3259959827565
21
-25.042240996055952
31
0.
0
LINE
8
0
10
1242.3259959827565
20
-25.042240996055952
30
0.
11
1247.714904193349
21
-25.02857410276398
31
0.
0
LINE
8
0
10
1247.714904193349
20
-25.02857410276398
30
0.
11
1252.39972279843
21
-25.015134048441006
31
0.
0
LINE
8
0
10
1252.39972279843
20
-25.015134048441006
30
0.
11
1257.1005690045206
21
-25.000021716216928
31
0.
0
LINE
8
0
10
1257.1005690045206
20
-25.000021716216928
30
0.
11
1261.8928693807798
21
-24.98304504176255
31
0.
0
LINE
8
0
10
1261.8928693807798
20
-24.98304504176255
30
0.
11
1267.8135222487388
21
-24.960665523750396
31
0.
0
LINE
8
0
10
1267.8135222487388
20
-24.960665523750396
30
0.
11
1273.2346956921167
21
-24.939073126343274
31
0.
0
LINE
8
0
10
1273.2346956921167
20
-24.939073126343274
30
0.
11
1278.2106437503146
21
-24.91891030155416
31
0.
0
LINE
8
0
10
1278.2106437503146
20
-24.91891030155416
30
0.
11
1282.7763104297935
21
-24.90051499694167
31
0.
0
LINE
8
0
10
1282.7763104297935
20
-24.90051499694167
30
0.
11
1287.645650236036
21
-24.881240679283056
31
0.
0
LINE
8
0
10
1287.645650236036
20
-24.881240679283056
30
0.
11
1292.9881679055793
21
-24.861710431510524
31
0.
0
LINE
8
0
10
1292.9881679055793
20
-24.861710431510524
30
0.
11
1294.6769860322725
21
-24.855906964258203
31
0.
0
LINE
8
0
10
1294.6769860322725
20
-24.855906964258203
30
0.
11
1297.9519713276356
21
-24.845215137762512
31
0.
0
LINE
8
0
10
1297.9519713276356
20
-24.845215137762512
30
0.
11
1302.9858478796334
21
-24.83130827397459
31
0.
0
LINE
8
0
10
1302.9858478796334
20
-24.83130827397459
30
0.
11
1308.1297689417886
21
-24.81905445894553
31
0.
0
LINE
8
0
10
1308.1297689417886
20
-24.81905445894553
30
0.
11
1313.1300957607211
21
-24.80970714578571
31
0.
0
LINE
8
0
10
1313.1300957607211
20
-24.80970714578571
30
0.
11
1318.5217446006718
21
-24.80096170595861
31
0.
0
LINE
8
0
10
1318.5217446006718
20
-24.80096170595861
30
0.
11
1318.5621494202449
21
-24.8009467316047
31
0.
0
LINE
8
0
10
1318.5621494202449
20
-24.8009467316047
30
0.
11
1320.6443800600389
21
-24.7983556378283
31
0.
0
LINE
8
0
10
1320.6443800600389
20
-24.7983556378283
30
0.
11
1325.239174068033
21
-24.79407372852523
31
0.
0
LINE
8
0
10
1325.239174068033
20
-24.79407372852523
30
0.
11
1329.9371338844398
21
-24.791538890634616
31
0.
0
LINE
8
0
10
1329.9371338844398
20
-24.791538890634616
30
0.
11
1334.9758601007218
21
-24.791448895568863
31
0.
0
LINE
8
0
10
1334.9758601007218
20
-24.791448895568863
30
0.
11
1339.7605144925753
21
-24.79398094763009
31
0.
0
LINE
8
0
10
1339.7605144925753
20
-24.79398094763009
30
0.
11
1344.4538487309683
21
-24.799186405977764
31
0.
0
LINE
8
0
10
1344.4538487309683
20
-24.799186405977764
30
0.
11
1349.1471829692646
21
-24.80602199973152
31
0.
0
LINE
8
0
10
1349.1471829692646
20
-24.80602199973152
30
0.
11
1353.8405172075456
21
-24.8148778094864
31
0.
0
LINE
8
0
10
1353.8405172075456
20
-24.8148778094864
30
0.
11
1358.5338514459115
21
-24.825852044555592
31
0.
0
LINE
8
0
10
1358.5338514459115
20
-24.825852044555592
30
0.
11
1363.2196476625516
21
-24.8406437229919
31
0.
0
LINE
8
0
10
1363.2196476625516
20
-24.8406437229919
30
0.
11
1367.9025370285065
21
-24.85869548593681
31
0.
0
LINE
8
0
10
1367.9025370285065
20
-24.85869548593681
30
0.
11
1372.5854263944614
21
-24.87944842168863
31
0.
0
LINE
8
0
10
1372.5854263944614
20
-24.87944842168863
30
0.
11
1377.1679155818033
21
-24.904674916979804
31
0.
0
LINE
8
0
10
1377.1679155818033
20
-24.904674916979804
30
0.
11
1381.7477717065085
21
-24.933212263893406
31
0.
0
LINE
8
0
10
1381.7477717065085
20
-24.933212263893406
30
0.
11
1386.3276278312749
21
-24.963547557983023
31
0.
0
LINE
8
0
10
1386.3276278312749
20
-24.963547557983023
30
0.
11
1390.9074839560412
21
-24.996899710294244
31
0.
0
LINE
8
0
10
1390.9074839560412
20
-24.996899710294244
30
0.
11
1395.4873400808076
21
-25.033664741788318
31
0.
0
LINE
8
0
10
1395.4873400808076
20
-25.033664741788318
30
0.
11
1400.1091391908164
21
-25.0742601593154
31
0.
0
LINE
8
0
10
1400.1091391908164
20
-25.0742601593154
30
0.
11
1404.789713143513
21
-25.1195539617719
31
0.
0
LINE
8
0
10
1404.789713143513
20
-25.1195539617719
30
0.
11
1409.470287096293
21
-25.165434066031885
31
0.
0
LINE
8
0
10
1409.470287096293
20
-25.165434066031885
30
0.
11
1414.1508610490448
21
-25.211287130485978
31
0.
0
LINE
8
0
10
1414.1508610490448
20
-25.211287130485978
30
0.
11
1418.8314350018254
21
-25.256929618158726
31
0.
0
LINE
8
0
10
1418.8314350018254
20
-25.256929618158726
30
0.
11
1423.5108061816372
21
-25.30397219516824
31
0.
0
LINE
8
0
10
1423.5108061816372
20
-25.30397219516824
30
0.
11
1428.1901909325438
21
-25.349187975318916
31
0.
0
LINE
8
0
10
1428.1901909325438
20
-25.349187975318916
30
0.
11
1432.869575683479
21
-25.39317979906256
31
0.
0
LINE
8
0
10
1432.869575683479
20
-25.39317979906256
30
0.
11
1437.5489604343913
21
-25.4346857708222
31
0.
0
LINE
8
0
10
1437.5489604343913
20
-25.4346857708222
30
0.
11
1442.1246614945103
21
-25.476507781672712
31
0.
0
LINE
8
0
10
1442.1246614945103
20
-25.476507781672712
30
0.
11
1446.672811322697
21
-25.51654018236598
31
0.
0
LINE
8
0
10
1446.672811322697
20
-25.51654018236598
30
0.
11
1451.2209611508551
21
-25.556012295830453
31
0.
0
LINE
8
0
10
1451.2209611508551
20
-25.556012295830453
30
0.
11
1455.7691109790132
21
-25.594227544569076
31
0.
0
LINE
8
0
10
1455.7691109790132
20
-25.594227544569076
30
0.
11
1460.3172608072
21
-25.63217870097864
31
0.
0
LINE
8
0
10
1460.3172608072
20
-25.63217870097864
30
0.
11
1464.865410635358
21
-25.670296189733346
31
0.
0
LINE
8
0
10
1464.865410635358
20
-25.670296189733346
30
0.
11
1469.5303446600856
21
-25.712123044276236
31
0.
0
LINE
8
0
10
1469.5303446600856
20
-25.712123044276236
30
0.
11
1474.22593262742
21
-25.755018271423467
31
0.
0
LINE
8
0
10
1474.22593262742
20
-25.755018271423467
30
0.
11
1478.8814737703678
21
-25.800266077290257
31
0.
0
LINE
8
0
10
1478.8814737703678
20
-25.800266077290257
30
0.
11
1483.5096870531327
21
-25.847960706845576
31
0.
0
LINE
8
0
10
1483.5096870531327
20
-25.847960706845576
30
0.
11
1488.1379003359052
21
-25.89720904342474
31
0.
0
LINE
8
0
10
1488.1379003359052
20
-25.89720904342474
30
0.
11
1492.7661136186991
21
-25.949550198372485
31
0.
0
LINE
8
0
10
1492.7661136186991
20
-25.949550198372485
30
0.
11
1497.3943269015006
21
-26.000488301141885
31
0.
0
LINE
8
0
10
1497.3943269015006
20
-26.000488301141885
30
0.
11
1502.022540184273
21
-26.055394789963383
31
0.
0
LINE
8
0
10
1502.022540184273
20
-26.055394789963383
30
0.
11
1506.6507534670745
21
-26.11321734782563
31
0.
0
LINE
8
0
10
1506.6507534670745
20
-26.11321734782563
30
0.
11
1511.43174451202
21
-26.173664329328126
31
0.
0
LINE
8
0
10
1511.43174451202
20
-26.173664329328126
30
0.
11
1516.1903120192826
21
-26.235232085150823
31
0.
0
LINE
8
0
10
1516.1903120192826
20
-26.235232085150823
30
0.
11
1520.7579734700678
21
-26.295455128226617
31
0.
0
LINE
8
0
10
1520.7579734700678
20
-26.295455128226617
30
0.
11
1525.3256349208532
21
-26.357795387997477
31
0.
0
LINE
8
0
10
1525.3256349208532
20
-26.357795387997477
30
0.
11
1529.8932963716093
21
-26.419722980195708
31
0.
0
LINE
8
0
10
1529.8932963716093
20
-26.419722980195708
30
0.
11
1534.4790026725777
21
-26.484442796078564
31
0.
0
LINE
8
0
10
1534.4790026725777
20
-26.484442796078564
30
0.
11
1539.1609555466823
21
-26.550263394500362
31
0.
0
LINE
8
0
10
1539.1609555466823
20
-26.550263394500362
30
0.
11
1543.8429084207578
21
-26.618150441053167
31
0.
0
LINE
8
0
10
1543.8429084207578
20
-26.618150441053167
30
0.
11
1548.5248612948624
21
-26.686527664329446
31
0.
0
LINE
8
0
10
1548.5248612948624
20
-26.686527664329446
30
0.
11
1553.1990556438998
21
-26.757464331172525
31
0.
0
LINE
8
0
10
1553.1990556438998
20
-26.757464331172525
30
0.
11
1557.8387582851437
21
-26.829636398233657
31
0.
0
LINE
8
0
10
1557.8387582851437
20
-26.829636398233657
30
0.
11
1562.4784609263686
21
-26.90401540681725
31
0.
0
LINE
8
0
10
1562.4784609263686
20
-26.90401540681725
30
0.
11
1567.118163567603
21
-26.981551405153876
31
0.
0
LINE
8
0
10
1567.118163567603
20
-26.981551405153876
30
0.
11
1571.7578662088374
21
-27.06150092482022
31
0.
0
LINE
8
0
10
1571.7578662088374
20
-27.06150092482022
30
0.
11
1576.4615106054061
21
-27.146801339508443
31
0.
0
LINE
8
0
10
1576.4615106054061
20
-27.146801339508443
30
0.
11
1581.1145614063082
21
-27.234155000291675
31
0.
0
LINE
8
0
10
1581.1145614063082
20
-27.234155000291675
30
0.
11
1585.7091739258979
21
-27.3181983718235
31
0.
0
LINE
8
0
10
1585.7091739258979
20
-27.3181983718235
30
0.
11
1590.5045903429973
21
-27.409756609444955
31
0.
0
LINE
8
0
10
1590.5045903429973
20
-27.409756609444955
30
0.
11
1595.1246263214487
21
-27.498367600911013
31
0.
0
LINE
8
0
10
1595.1246263214487
20
-27.498367600911013
30
0.
11
1599.7446622998712
21
-27.586800333250828
31
0.
0
LINE
8
0
10
1599.7446622998712
20
-27.586800333250828
30
0.
11
1604.3488321704328
21
-27.677604793560448
31
0.
0
LINE
8
0
10
1604.3488321704328
20
-27.677604793560448
30
0.
11
1608.9179963939048
21
-27.76372563481976
31
0.
0
LINE
8
0
10
1608.9179963939048
20
-27.76372563481976
30
0.
11
1613.5179046518165
21
-27.849422227325682
31
0.
0
LINE
8
0
10
1613.5179046518165
20
-27.849422227325682
30
0.
11
1618.4348714251355
21
-27.9404848055059
31
0.
0
LINE
8
0
10
1618.4348714251355
20
-27.9404848055059
30
0.
11
1623.3518381984545
21
-28.030400491029603
31
0.
0
LINE
8
0
10
1623.3518381984545
20
-28.030400491029603
30
0.
11
1628.0670015240005
21
-28.113100757615978
31
0.
0
LINE
8
0
10
1628.0670015240005
20
-28.113100757615978
30
0.
11
1632.6738564696632
21
-28.193369484821176
31
0.
0
LINE
8
0
10
1632.6738564696632
20
-28.193369484821176
30
0.
11
1637.3250028508353
21
-28.270462144173077
31
0.
0
LINE
8
0
10
1637.3250028508353
20
-28.270462144173077
30
0.
11
1642.1435202573064
21
-28.34791369498223
31
0.
0
LINE
8
0
10
1642.1435202573064
20
-28.34791369498223
30
0.
11
1646.962037663748
21
-28.42430228531315
31
0.
0
LINE
8
0
10
1646.962037663748
20
-28.42430228531315
30
0.
11
1651.7835983496236
21
-28.498570503707406
31
0.
0
LINE
8
0
10
1651.7835983496236
20
-28.498570503707406
30
0.
11
1656.6321921229994
21
-28.569602366669354
31
0.
0
LINE
8
0
10
1656.6321921229994
20
-28.569602366669354
30
0.
11
1661.4702522853327
21
-28.638899184245695
31
0.
0
LINE
8
0
10
1661.4702522853327
20
-28.638899184245695
30
0.
11
1666.2255871984053
21
-28.704459162719278
31
0.
0
LINE
8
0
10
1666.2255871984053
20
-28.704459162719278
30
0.
11
1670.9809221114779
21
-28.76832784841497
31
0.
0
LINE
8
0
10
1670.9809221114779
20
-28.76832784841497
30
0.
11
1675.7362570245582
21
-28.83136872828504
31
0.
0
LINE
8
0
10
1675.7362570245582
20
-28.83136872828504
30
0.
11
1680.5731910386735
21
-28.891616645546474
31
0.
0
LINE
8
0
10
1680.5731910386735
20
-28.891616645546474
30
0.
11
1685.4334345233033
21
-28.951734461852713
31
0.
0
LINE
8
0
10
1685.4334345233033
20
-28.951734461852713
30
0.
11
1690.2663949159776
21
-29.00878218224152
31
0.
0
LINE
8
0
10
1690.2663949159776
20
-29.00878218224152
30
0.
11
1695.0513805811834
21
-29.063225373441572
31
0.
0
LINE
8
0
10
1695.0513805811834
20
-29.063225373441572
30
0.
11
1699.8363662464428
21
-29.1170448949065
31
0.
0
LINE
8
0
10
1699.8363662464428
20
-29.1170448949065
30
0.
11
1704.6782826792985
21
-29.16914701170279
31
0.
0
LINE
8
0
10
1704.6782826792985
20
-29.16914701170279
30
0.
11
1709.5492001257496
21
-29.220680681839934
31
0.
0
LINE
8
0
10
1709.5492001257496
20
-29.220680681839934
30
0.
11
1714.4216993288899
21
-29.27167262695466
31
0.
0
LINE
8
0
10
1714.4216993288899
20
-29.27167262695466
30
0.
11
1719.3660696600075
21
-29.321030071716635
31
0.
0
LINE
8
0
10
1719.3660696600075
20
-29.321030071716635
30
0.
11
1724.2639811810832
21
-29.369323413834547
31
0.
0
LINE
8
0
10
1724.2639811810832
20
-29.369323413834547
30
0.
11
1729.0298004412443
21
-29.414414502183472
31
0.
0
LINE
8
0
10
1729.0298004412443
20
-29.414414502183472
30
0.
11
1733.7956197013173
21
-29.460491143000617
31
0.
0
LINE
8
0
10
1733.7956197013173
20
-29.460491143000617
30
0.
11
1738.4351100900537
21
-29.503694478666542
31
0.
0
LINE
8
0
10
1738.4351100900537
20
-29.503694478666542
30
0.
11
1743.0476631493705
21
-29.546609861958007
31
0.
0
LINE
8
0
10
1743.0476631493705
20
-29.546609861958007
30
0.
11
1747.6852678479113
21
-29.589983152653648
31
0.
0
LINE
8
0
10
1747.6852678479113
20
-29.589983152653648
30
0.
11
1752.4740745349898
21
-29.63337692135259
31
0.
0
LINE
8
0
10
1752.4740745349898
20
-29.63337692135259
30
0.
11
1757.2628812221456
21
-29.677447158726167
31
0.
0
LINE
8
0
10
1757.2628812221456
20
-29.677447158726167
30
0.
11
1762.0990672461032
21
-29.721086060325465
31
0.
0
LINE
8
0
10
1762.0990672461032
20
-29.721086060325465
30
0.
11
1766.939454831924
21
-29.765263586390375
31
0.
0
LINE
8
0
10
1766.939454831924
20
-29.765263586390375
30
0.
11
1771.80385246918
21
-29.810879071749632
31
0.
0
LINE
8
0
10
1771.80385246918
20
-29.810879071749632
30
0.
11
1777.0371901423919
21
-29.86058526436774
31
0.
0
LINE
8
0
10
1777.0371901423919
20
-29.86058526436774
30
0.
11
1781.8715016081912
21
-29.907673572044857
31
0.
0
LINE
8
0
10
1781.8715016081912
20
-29.907673572044857
30
0.
11
1786.5449046173328
21
-29.954609273643946
31
0.
0
LINE
8
0
10
1786.5449046173328
20
-29.954609273643946
30
0.
11
1791.1167065166221
21
-30.001797191226004
31
0.
0
LINE
8
0
10
1791.1167065166221
20
-30.001797191226004
30
0.
11
1795.688508416014
21
-30.04939230888383
31
0.
0
LINE
8
0
10
1795.688508416014
20
-30.04939230888383
30
0.
11
1800.310316616723
21
-30.098743471918137
31
0.
0
LINE
8
0
10
1800.310316616723
20
-30.098743471918137
30
0.
11
1804.981160079329
21
-30.149305174279434
31
0.
0
LINE
8
0
10
1804.981160079329
20
-30.149305174279434
30
0.
11
1809.6520035419937
21
-30.20073292517379
31
0.
0
LINE
8
0
10
1809.6520035419937
20
-30.20073292517379
30
0.
11
1814.3228470045788
21
-30.2524654076731
31
0.
0
LINE
8
0
10
1814.3228470045788
20
-30.2524654076731
30
0.
11
1818.9936904672436
21
-30.30488392880068
31
0.
0
LINE
8
0
10
1818.9936904672436
20
-30.30488392880068
30
0.
11
1823.8432889083251
21
-30.360340756459426
31
0.
0
LINE
8
0
10
1823.8432889083251
20
-30.360340756459426
30
0.
11
1828.7988566372635
21
-30.41748595163991
31
0.
0
LINE
8
0
10
1828.7988566372635
20
-30.41748595163991
30
0.
11
1833.5594033821433
21
-30.473357183349762
31
0.
0
LINE
8
0
10
1833.5594033821433
20
-30.473357183349762
30
0.
11
1838.2873770188849
21
-30.52902951318702
31
0.
0
LINE
8
0
10
1838.2873770188849
20
-30.52902951318702
30
0.
11
1843.0153506555819
21
-30.585011826715867
31
0.
0
LINE
8
0
10
1843.0153506555819
20
-30.585011826715867
30
0.
11
1847.7604431772293
21
-30.64146156890656
31
0.
0
LINE
8
0
10
1847.7604431772293
20
-30.64146156890656
30
0.
11
1852.6882567085468
21
-30.70051984626171
31
0.
0
LINE
8
0
10
1852.6882567085468
20
-30.70051984626171
30
0.
11
1857.4972060274358
21
-30.75842869128157
31
0.
0
LINE
8
0
10
1857.4972060274358
20
-30.75842869128157
30
0.
11
1862.0454181219836
21
-30.813054089966062
31
0.
0
LINE
8
0
10
1862.0454181219836
20
-30.813054089966062
30
0.
11
1866.609646452415
21
-30.868113464845305
31
0.
0
LINE
8
0
10
1866.609646452415
20
-30.868113464845305
30
0.
11
1871.2093708635468
21
-30.923521112870283
31
0.
0
LINE
8
0
10
1871.2093708635468
20
-30.923521112870283
30
0.
11
1875.8090952747023
21
-30.97895673525733
31
0.
0
LINE
8
0
10
1875.8090952747023
20
-30.97895673525733
30
0.
11
1880.4088196858577
21
-31.02307980973371
31
0.
0
LINE
8
0
10
1880.4088196858577
20
-31.02307980973371
30
0.
11
1885.5367396232289
21
-31.067490232084047
31
0.
0
LINE
8
0
10
1885.5367396232289
20
-31.067490232084047
30
0.
11
1890.4658196064747
21
-31.103774474892955
31
0.
0
LINE
8
0
10
1890.4658196064747
20
-31.103774474892955
30
0.
11
1895.132019298872
21
-31.13889434871713
31
0.
0
LINE
8
0
10
1895.132019298872
20
-31.13889434871713
30
0.
11
1899.6905741668209
21
-31.174246470135234
31
0.
0
ENDSEC
0
EOF
