{
    "agsiModel": [
        {
            "modelID": "1fb599ab-c040-408d-aba0-85b18bb506c2",
            "modelName": "Example simple geological model",
            "modelType": "Geological model",
            "category": "Observational",
            "domain": "Engineering geology",
            "usage": "Visualisation only",
            "agsiModelBoundary": {
                "minX": 12000,
                "maxX": 13000,
                "minY": 5000,
                "maxY": 6000,
                "bottomElevation": -25
            },
            "agsiModelElement": [
                {
                    "elementID": "MG",
                    "elementName": "Made Ground",
                    "elementType": "Geological unit",
                    "geometryObject": "agsiGeometryVolFromSurfaces",
                    "agsiGeometry": {
						"agsiGeometryTop": {
							"description": "Top of MG",
							"geometryType": "Surface",
							"fileFormat": "LANDXML",
							"fileFormatVersion": "1.2",
							"fileURI": "geometry/geology/MGtop.xml"
						},
						"agsiGeometryBottom": {
							"description": "Top of ALV / Bottom of MG",
							"geometryType": "Surface",
							"fileFormat": "LANDXML",
							"fileFormatVersion": "1.2",
							"fileURI": "geometry/geology/ALVtop.xml"
						}
					}
                },
                {
                    "elementID": "ALV",
                    "elementName": "Alluvium",
                    "elementType": "Geological unit",
                    "geometryObject": "agsiGeometryVolFromSurfaces",
                    "agsiGeometry": {
						"agsiGeometryTop": {
							"description": "Top of ALV / Bottom of MG",
							"geometryType": "Surface",
							"fileFormat": "LANDXML",
							"fileFormatVersion": "1.2",
							"fileURI": "geometry/geology/ALVtop.xml"
						},
						"agsiGeometryBottom": {
							"description": "Top of GC / Bottom of ALV",
							"geometryType": "Surface",
							"fileFormat": "LANDXML",
							"fileFormatVersion": "1.2",
							"fileURI": "geometry/geology/GCtop.xml"
						}
					}
                },
                {
                    "elementID": "GC",
                    "elementName": "Gotham Clay",
                    "elementType": "Geological unit",
                    "geometryObject": "agsiGeometryVolFromSurfaces",
                    "agsiGeometry": {
						"agsiGeometryTop": {
							"description": "Top of GC / Bottom of ALV",
							"geometryType": "Surface",
							"fileFormat": "LANDXML",
							"fileFormatVersion": "1.2",
							"fileURI": "geometry/geology/GCtop.xml"
						},
						"agsiGeometryBottom": {
							"elevation": -25
						}
					}
                }
            ]
        }
    ]
			
}