{
    "agsiModel": [
		{
			"description": "Model with example data for Data example (cut down version)",
			"remarks": "Model metadata and geometry data omitted for brevity",
			"agsiModelElement": [
				{
					"elementID": "MG",
					"elementName": "Made Ground",
					"agsiDataParameterValue": [
						{
							"codeID": "UnitWeightBulk",
							"valueNumeric": 19
						},
						{
							"codeID": "AngleFrictionPeak",
							"caseID": "CharacteristicLow",
							"valueNumeric": 25
						},
						{
							"codeID": "AngleFrictionPeak",
							"caseID": "CharacteristicHigh",
							"valueNumeric": 30
						},
						{
							"codeID": "AngleFrictionCritical",
							"caseID": "CharacteristicLow",
							"valueNumeric": 25
						},
						{
							"codeID": "AngleFrictionCritical",
							"caseID": "CharacteristicHigh",
							"valueNumeric": 30
						}
					]
				},
				{
					"elementID": "GC",
					"elementName": "Gotham Clay",
					"agsiDataParameterValue": [
						{
							"codeID": "UnitWeightBulk",
							"valueNumeric": 20
						},
						{
							"codeID": "UndrainedShearStrength",
							"caseID": "EC7characteristic",
							"valueProfileIndVarCodeID": "Elevation",
							"valueProfile": [
								[6.0,110.0],
								[-28.3,329.52]
							]
						},
						{
							"codeID": "UndrainedShearStrength",
							"caseID": "LDSAmean",
							"valueProfileIndVarCodeID": "Elevation",
							"valueProfile": [
								[6.0,130.0],
								[-28.3,378.675]
							]
						}
					]
				}
			]
		}
	],
	"agsProject": {
		"projectName": "C999 Geotechnical Package X",
		"remarks": "Other project metadata omitted for brevity",
		"agsProjectCodeSet": [
			{
				"description": "Parameter codes (AGSi)",
				"usedByObject": "agsiDataParameterValue",
				"usedByAttribute": "codeID",
				"sourceDescription": "AGSi standard code list",
				"sourceURI": "https://ags-data-format-wg.gitlab.io/AGSi_Documentation/Codes_Codelist/",
				"agsProjectCode": [					
					{
						"codeID": "Elevation",
						"description": "Elevation",
						"units": "mOD",
						"isStandard": true
					},
					{
						"codeID": "UnitWeightBulk",
						"description": "Bulk unit weight",
						"units": "kN/m3",
						"isStandard": true
					},
					{
						"codeID": "AngleFrictionPeak",
						"description": "Peak effective angle of shearing resistance",
						"units": "deg",
						"isStandard": true
					},
					{
						"codeID": "AngleFrictionCritical",
						"description": "Critical state effective angle of shearing resistance",
						"units": "deg",
						"isStandard": true
					},
					{
						"codeID": "UndrainedShearStrength",
						"description": "Undrained shear strength",
						"units": "kPa",
						"isStandard": true
					}
				],
			},
			{
				"description": "Parameter case codes",
				"usedByObject": "agsiDataParameterValue",
				"usedByAttribute": "caseID",
				"agsProjectCode": [
					{
						"codeID": "CharacteristicLow",
						"description": "Characteristic low value",
						"remarks": "Use when low value critical for design"
					},
					{
						"codeID": "CharacteristicHigh",
						"description": "Characteristic high value",
						"remarks": "Use when high value critical for design"
					},
					{
						"codeID": "EC7characteristic",
						"description": "EC7 characteristic"
					},
					{
						"codeID": "LDSAmean",
						"description": "Mean for LDSA pile design"
					}
				]
			}
		]
	}
}